# This file uses centimeters as units for non-parametric coordinates.

mtllib Tube_Emissive.mtl
g default
v 0.112865 0.304539 -0.039560
v 0.096009 0.304539 -0.072642
v 0.069754 0.304539 -0.098897
v 0.036672 0.304539 -0.115753
v 0.000000 0.304539 -0.121561
v -0.036672 0.304539 -0.115753
v -0.069754 0.304539 -0.098897
v -0.096009 0.304539 -0.072642
v -0.112865 0.304539 -0.039560
v -0.118673 0.304539 -0.002888
v -0.112865 0.304539 0.033784
v -0.096009 0.304539 0.066866
v -0.069754 0.304539 0.093120
v -0.036672 0.304539 0.109977
v -0.000000 0.304539 0.115785
v 0.036672 0.304539 0.109977
v 0.069754 0.304539 0.093120
v 0.096009 0.304539 0.066866
v 0.112865 0.304539 0.033784
v 0.118673 0.304539 -0.002888
v 0.112865 1.221771 -0.039560
v 0.096009 1.221771 -0.072642
v 0.069754 1.221771 -0.098897
v 0.036672 1.221771 -0.115753
v 0.000000 1.221771 -0.121561
v -0.036672 1.221771 -0.115753
v -0.069754 1.221771 -0.098897
v -0.096009 1.221771 -0.072642
v -0.112865 1.221771 -0.039560
v -0.118673 1.221771 -0.002888
v -0.112865 1.221771 0.033784
v -0.096009 1.221771 0.066866
v -0.069754 1.221771 0.093120
v -0.036672 1.221771 0.109977
v -0.000000 1.221771 0.115785
v 0.036672 1.221771 0.109977
v 0.069754 1.221771 0.093120
v 0.096009 1.221771 0.066866
v 0.112865 1.221771 0.033784
v 0.118673 1.221771 -0.002888
vt 0.375000 0.312500
vt 0.387500 0.312500
vt 0.400000 0.312500
vt 0.412500 0.312500
vt 0.425000 0.312500
vt 0.437500 0.312500
vt 0.450000 0.312500
vt 0.462500 0.312500
vt 0.475000 0.312500
vt 0.487500 0.312500
vt 0.500000 0.312500
vt 0.512500 0.312500
vt 0.525000 0.312500
vt 0.537500 0.312500
vt 0.550000 0.312500
vt 0.562500 0.312500
vt 0.575000 0.312500
vt 0.587500 0.312500
vt 0.600000 0.312500
vt 0.612500 0.312500
vt 0.625000 0.312500
vt 0.375000 0.688440
vt 0.387500 0.688440
vt 0.400000 0.688440
vt 0.412500 0.688440
vt 0.425000 0.688440
vt 0.437500 0.688440
vt 0.450000 0.688440
vt 0.462500 0.688440
vt 0.475000 0.688440
vt 0.487500 0.688440
vt 0.500000 0.688440
vt 0.512500 0.688440
vt 0.525000 0.688440
vt 0.537500 0.688440
vt 0.550000 0.688440
vt 0.562500 0.688440
vt 0.575000 0.688440
vt 0.587500 0.688440
vt 0.600000 0.688440
vt 0.612500 0.688440
vt 0.625000 0.688440
vn 0.951057 0.000000 -0.309016
vn 0.809017 0.000000 -0.587785
vn 0.809017 0.000000 -0.587785
vn 0.951057 0.000000 -0.309016
vn 0.587785 0.000000 -0.809017
vn 0.587785 0.000000 -0.809017
vn 0.309017 0.000000 -0.951057
vn 0.309017 0.000000 -0.951057
vn -0.000001 0.000000 -1.000000
vn -0.000001 0.000000 -1.000000
vn -0.309017 0.000000 -0.951057
vn -0.309017 0.000000 -0.951057
vn -0.587785 0.000000 -0.809017
vn -0.587785 0.000000 -0.809017
vn -0.809017 0.000000 -0.587785
vn -0.809017 0.000000 -0.587785
vn -0.951057 0.000000 -0.309017
vn -0.951057 0.000000 -0.309017
vn -1.000000 0.000000 0.000000
vn -1.000000 0.000000 0.000000
vn -0.951057 0.000000 0.309017
vn -0.951057 0.000000 0.309017
vn -0.809017 0.000000 0.587785
vn -0.809017 0.000000 0.587785
vn -0.587786 0.000000 0.809017
vn -0.587786 0.000000 0.809017
vn -0.309017 0.000000 0.951057
vn -0.309017 0.000000 0.951057
vn 0.000001 0.000000 1.000000
vn 0.000001 0.000000 1.000000
vn 0.309017 0.000000 0.951057
vn 0.309017 0.000000 0.951057
vn 0.587785 0.000000 0.809017
vn 0.587785 0.000000 0.809017
vn 0.809017 0.000000 0.587785
vn 0.809017 0.000000 0.587785
vn 0.951057 0.000000 0.309017
vn 0.951057 0.000000 0.309017
vn 1.000000 0.000000 0.000001
vn 1.000000 0.000000 0.000001
s 1
g pCylinder2
usemtl lambert5SG
f 1/1/1 2/2/2 22/23/3 21/22/4
f 2/2/2 3/3/5 23/24/6 22/23/3
f 3/3/5 4/4/7 24/25/8 23/24/6
f 4/4/7 5/5/9 25/26/10 24/25/8
f 5/5/9 6/6/11 26/27/12 25/26/10
f 6/6/11 7/7/13 27/28/14 26/27/12
f 7/7/13 8/8/15 28/29/16 27/28/14
f 8/8/15 9/9/17 29/30/18 28/29/16
f 9/9/17 10/10/19 30/31/20 29/30/18
f 10/10/19 11/11/21 31/32/22 30/31/20
f 11/11/21 12/12/23 32/33/24 31/32/22
f 12/12/23 13/13/25 33/34/26 32/33/24
f 13/13/25 14/14/27 34/35/28 33/34/26
f 14/14/27 15/15/29 35/36/30 34/35/28
f 15/15/29 16/16/31 36/37/32 35/36/30
f 16/16/31 17/17/33 37/38/34 36/37/32
f 17/17/33 18/18/35 38/39/36 37/38/34
f 18/18/35 19/19/37 39/40/38 38/39/36
f 19/19/37 20/20/39 40/41/40 39/40/38
f 20/20/39 1/21/1 21/42/4 40/41/40
