# This file uses centimeters as units for non-parametric coordinates.

mtllib Canvi_01.mtl
g default
v 0.013658 0.028204 0.048640
v 0.013658 0.006544 0.047967
v 0.013658 -0.005712 0.026745
v 0.013658 0.006539 0.005524
v 0.013658 0.031048 0.005523
v 0.013658 0.043298 0.026740
v -0.157602 0.028203 0.056860
v -0.252167 0.028203 0.082024
v -0.332310 0.028203 0.123144
v -0.403292 0.028203 0.158945
v -0.482052 0.028203 0.171480
v -0.564642 0.028203 0.156646
v -0.646872 0.028203 0.127044
v -0.727360 0.028203 0.094064
v -0.803714 0.028203 0.068137
v -0.875645 0.028203 0.053714
v -0.944862 0.028203 0.047648
v -1.012005 0.028203 0.046700
v -1.077599 0.028203 0.047611
v -0.157659 0.006543 0.056189
v -0.252391 0.006543 0.081389
v -0.332635 0.006543 0.122555
v -0.403570 0.006543 0.158332
v -0.482082 0.006543 0.170807
v -0.564480 0.006543 0.155993
v -0.646628 0.006543 0.126417
v -0.727106 0.006543 0.093441
v -0.803516 0.006543 0.067494
v -0.875533 0.006543 0.053051
v -0.944819 0.006543 0.046977
v -1.012004 0.006543 0.046027
v -1.077609 0.006543 0.046938
v -0.159446 -0.005713 0.035043
v -0.259477 -0.005713 0.061385
v -0.342888 -0.005713 0.103974
v -0.412342 -0.005713 0.139008
v -0.483026 -0.005713 0.149606
v -0.559387 -0.005713 0.135391
v -0.638945 -0.005713 0.106635
v -0.719103 -0.005713 0.073786
v -0.797285 -0.005713 0.047207
v -0.872001 -0.005713 0.032125
v -0.943451 -0.005713 0.025799
v -1.011976 -0.005713 0.024805
v -1.077922 -0.005713 0.025719
v -0.161233 0.006538 0.013897
v -0.266562 0.006538 0.041382
v -0.353140 0.006538 0.085394
v -0.421113 0.006538 0.119685
v -0.483970 0.006538 0.128407
v -0.554294 0.006538 0.114791
v -0.631261 0.006538 0.086854
v -0.711101 0.006538 0.054132
v -0.791054 0.006538 0.026922
v -0.868470 0.006538 0.011200
v -0.942083 0.006538 0.004622
v -1.011949 0.006538 0.003584
v -1.078235 0.006538 0.004500
v -0.161233 0.031048 0.013896
v -0.266562 0.031048 0.041381
v -0.353140 0.031048 0.085393
v -0.421114 0.031048 0.119684
v -0.483970 0.031048 0.128406
v -0.554294 0.031048 0.114790
v -0.631261 0.031048 0.086853
v -0.711101 0.031048 0.054131
v -0.791053 0.031048 0.026921
v -0.868469 0.031048 0.011199
v -0.942083 0.031048 0.004621
v -1.011949 0.031048 0.003583
v -1.078234 0.031048 0.004499
v -0.159447 0.043297 0.035037
v -0.259479 0.043297 0.061380
v -0.342890 0.043297 0.103970
v -0.412344 0.043297 0.139004
v -0.483026 0.043297 0.149601
v -0.559386 0.043297 0.135387
v -0.638943 0.043297 0.106630
v -0.719101 0.043297 0.073781
v -0.797284 0.043297 0.047203
v -0.872001 0.043297 0.032120
v -0.943451 0.043297 0.025794
v -1.011977 0.043297 0.024799
v -1.077922 0.043297 0.025714
v -0.065248 0.028203 0.049999
v -0.066170 0.043298 0.028138
v -0.067064 0.031048 0.006959
v -0.067064 0.006538 0.006960
v -0.066170 -0.005713 0.028143
v -0.065277 0.006543 0.049327
vt 0.139792 0.128218
vt 0.121530 0.129580
vt 0.121089 0.064269
vt 0.139434 0.064026
vt 0.140312 0.198731
vt 0.122068 0.199084
vt 0.140802 0.262441
vt 0.122620 0.261915
vt 0.141382 0.316076
vt 0.123165 0.314470
vt 0.141376 0.365578
vt 0.123397 0.364757
vt 0.141785 0.418957
vt 0.123615 0.418676
vt 0.141994 0.477010
vt 0.123754 0.477090
vt 0.142230 0.536500
vt 0.123870 0.536967
vt 0.142198 0.593165
vt 0.123872 0.593607
vt 0.142132 0.645330
vt 0.123856 0.645571
vt 0.142170 0.694487
vt 0.123904 0.694590
vt 0.142251 0.741551
vt 0.123993 0.741518
vt 0.142312 0.786917
vt 0.124078 0.786895
vt 0.106552 0.129614
vt 0.106209 0.064264
vt 0.107032 0.199302
vt 0.107659 0.262319
vt 0.108433 0.314733
vt 0.108565 0.364776
vt 0.108693 0.418520
vt 0.108838 0.476920
vt 0.108939 0.536840
vt 0.108891 0.593535
vt 0.108918 0.645562
vt 0.108991 0.694631
vt 0.109110 0.741585
vt 0.109241 0.786959
vt 0.089721 0.128415
vt 0.089313 0.064082
vt 0.090240 0.199366
vt 0.090909 0.263683
vt 0.091711 0.316892
vt 0.091969 0.365439
vt 0.091956 0.418407
vt 0.092044 0.476530
vt 0.092039 0.536138
vt 0.092009 0.592931
vt 0.092080 0.645300
vt 0.092167 0.694619
vt 0.092296 0.741773
vt 0.092459 0.787156
vt 0.072949 0.127280
vt 0.072386 0.063948
vt 0.073594 0.199416
vt 0.074229 0.265032
vt 0.074752 0.319347
vt 0.075206 0.366240
vt 0.075259 0.418388
vt 0.075274 0.476173
vt 0.075173 0.535506
vt 0.075194 0.592366
vt 0.075269 0.645077
vt 0.075355 0.694634
vt 0.075468 0.741982
vt 0.075614 0.787385
vt 0.056131 0.127411
vt 0.055490 0.064045
vt 0.056877 0.199618
vt 0.057438 0.265368
vt 0.057608 0.319746
vt 0.058084 0.366414
vt 0.058438 0.418344
vt 0.058448 0.476090
vt 0.058350 0.535438
vt 0.058379 0.592360
vt 0.058427 0.645148
vt 0.058507 0.694745
vt 0.058598 0.742107
vt 0.058705 0.787520
vt 0.039393 0.128845
vt 0.038560 0.064316
vt 0.040231 0.200068
vt 0.040750 0.264755
vt 0.040618 0.317942
vt 0.041384 0.365800
vt 0.041737 0.418282
vt 0.041671 0.476288
vt 0.041471 0.535950
vt 0.041574 0.592948
vt 0.041623 0.645543
vt 0.041693 0.694974
vt 0.041761 0.742147
vt 0.041840 0.787526
vt 0.120684 0.009517
vt 0.138912 0.009105
vt 0.038230 0.009304
vt 0.055109 0.008862
vt 0.072094 0.008838
vt 0.089009 0.009197
vt 0.105832 0.009540
vn 0.001229 0.999730 0.023209
vn 0.146376 0.514412 0.844958
vn 0.041398 0.504561 0.862383
vn 0.002515 0.998599 0.052861
vn 0.005492 0.999880 0.014457
vn 0.303586 0.516942 0.800379
vn 0.028481 0.998052 0.055499
vn 0.392650 0.500184 0.771778
vn 0.035734 0.990486 0.132896
vn 0.274250 0.474617 0.836377
vn -0.003705 0.988373 0.152005
vn -0.012469 0.467171 0.884079
vn -0.028349 0.993811 0.107407
vn -0.228706 0.482042 0.845771
vn -0.028024 0.996897 0.073562
vn -0.312078 0.495039 0.810891
vn -0.018896 0.998605 0.049302
vn -0.303352 0.504615 0.808295
vn -0.009863 0.999383 0.033723
vn -0.225344 0.510910 0.829573
vn -0.005358 0.999330 0.036201
vn -0.123542 0.510103 0.851195
vn -0.002278 0.998968 0.045370
vn -0.044344 0.507102 0.860745
vn 0.000059 0.998371 0.057057
vn -0.000296 0.503123 0.864215
vn 0.000897 0.997957 0.063886
vn 0.012022 0.500804 0.865477
vn 0.141377 -0.558186 0.817583
vn 0.040133 -0.547269 0.835994
vn 0.293564 -0.560909 0.774081
vn 0.380953 -0.542427 0.748764
vn 0.266585 -0.514159 0.815213
vn -0.012334 -0.506318 0.862258
vn -0.222502 -0.522730 0.822950
vn -0.303006 -0.536877 0.787369
vn -0.294093 -0.547348 0.783530
vn -0.218265 -0.554216 0.803247
vn -0.119671 -0.553291 0.824347
vn -0.042973 -0.549988 0.834066
vn -0.000283 -0.545626 0.838029
vn 0.011663 -0.543079 0.839601
vn -0.009217 -0.999211 -0.038626
vn -0.000581 -0.999929 -0.011906
vn -0.016373 -0.998914 -0.043617
vn -0.001229 -0.999995 -0.002947
vn 0.014480 -0.997705 0.066147
vn -0.002112 -0.996737 0.080689
vn -0.010134 -0.999118 0.040744
vn -0.004032 -0.999928 0.011270
vn 0.003910 -0.999928 -0.011389
vn 0.006855 -0.999599 -0.027493
vn 0.003840 -0.999637 -0.026682
vn 0.001059 -0.999824 -0.018750
vn 0.000088 -0.999968 -0.008006
vn -0.000012 -0.999999 -0.001658
vn -0.147724 -0.482105 -0.863569
vn -0.041552 -0.494655 -0.868096
vn -0.306485 -0.478835 -0.822669
vn -0.392213 -0.497286 -0.773870
vn -0.261577 -0.529484 -0.806984
vn 0.030957 -0.532594 -0.845804
vn 0.232057 -0.515742 -0.824718
vn 0.311361 -0.504534 -0.805295
vn 0.305367 -0.494619 -0.813698
vn 0.230073 -0.487628 -0.842190
vn 0.127543 -0.487910 -0.863526
vn 0.046125 -0.491550 -0.869627
vn 0.000736 -0.496328 -0.868135
vn -0.011983 -0.499172 -0.866420
vn -0.147735 0.482004 -0.863624
vn -0.041559 0.494554 -0.868153
vn -0.306504 0.478736 -0.822720
vn -0.392238 0.497189 -0.773920
vn -0.261597 0.529387 -0.807042
vn 0.030960 0.532498 -0.845865
vn 0.232073 0.515647 -0.824773
vn 0.311380 0.504441 -0.805346
vn 0.305385 0.494526 -0.813747
vn 0.230088 0.487535 -0.842241
vn 0.127551 0.487816 -0.863578
vn 0.046128 0.491455 -0.869680
vn 0.000736 0.496234 -0.868189
vn -0.011984 0.499077 -0.866475
vn 0.014937 0.503197 0.864043
vn 0.000893 0.998410 0.056353
vn -0.015410 0.495761 -0.868323
vn -0.015404 -0.495859 -0.868266
vn -0.000227 -0.999962 -0.008697
vn 0.014484 -0.545731 0.837835
s 1
g polySurface26 pasted__Low_C17 group2
usemtl initialShadingGroup
f 72/1/1 7/2/2 85/3/3 86/4/4
f 73/5/5 8/6/6 7/2/2 72/1/1
f 74/7/7 9/8/8 8/6/6 73/5/5
f 75/9/9 10/10/10 9/8/8 74/7/7
f 76/11/11 11/12/12 10/10/10 75/9/9
f 77/13/13 12/14/14 11/12/12 76/11/11
f 78/15/15 13/16/16 12/14/14 77/13/13
f 79/17/17 14/18/18 13/16/16 78/15/15
f 80/19/19 15/20/20 14/18/18 79/17/17
f 81/21/21 16/22/22 15/20/20 80/19/19
f 82/23/23 17/24/24 16/22/22 81/21/21
f 83/25/25 18/26/26 17/24/24 82/23/23
f 84/27/27 19/28/28 18/26/26 83/25/25
f 7/2/2 20/29/29 90/30/30 85/3/3
f 8/6/6 21/31/31 20/29/29 7/2/2
f 9/8/8 22/32/32 21/31/31 8/6/6
f 10/10/10 23/33/33 22/32/32 9/8/8
f 11/12/12 24/34/34 23/33/33 10/10/10
f 12/14/14 25/35/35 24/34/34 11/12/12
f 13/16/16 26/36/36 25/35/35 12/14/14
f 14/18/18 27/37/37 26/36/36 13/16/16
f 15/20/20 28/38/38 27/37/37 14/18/18
f 16/22/22 29/39/39 28/38/38 15/20/20
f 17/24/24 30/40/40 29/39/39 16/22/22
f 18/26/26 31/41/41 30/40/40 17/24/24
f 19/28/28 32/42/42 31/41/41 18/26/26
f 20/29/29 33/43/43 89/44/44 90/30/30
f 21/31/31 34/45/45 33/43/43 20/29/29
f 22/32/32 35/46/46 34/45/45 21/31/31
f 23/33/33 36/47/47 35/46/46 22/32/32
f 24/34/34 37/48/48 36/47/47 23/33/33
f 25/35/35 38/49/49 37/48/48 24/34/34
f 26/36/36 39/50/50 38/49/49 25/35/35
f 27/37/37 40/51/51 39/50/50 26/36/36
f 28/38/38 41/52/52 40/51/51 27/37/37
f 29/39/39 42/53/53 41/52/52 28/38/38
f 30/40/40 43/54/54 42/53/53 29/39/39
f 31/41/41 44/55/55 43/54/54 30/40/40
f 32/42/42 45/56/56 44/55/55 31/41/41
f 33/43/43 46/57/57 88/58/58 89/44/44
f 34/45/45 47/59/59 46/57/57 33/43/43
f 35/46/46 48/60/60 47/59/59 34/45/45
f 36/47/47 49/61/61 48/60/60 35/46/46
f 37/48/48 50/62/62 49/61/61 36/47/47
f 38/49/49 51/63/63 50/62/62 37/48/48
f 39/50/50 52/64/64 51/63/63 38/49/49
f 40/51/51 53/65/65 52/64/64 39/50/50
f 41/52/52 54/66/66 53/65/65 40/51/51
f 42/53/53 55/67/67 54/66/66 41/52/52
f 43/54/54 56/68/68 55/67/67 42/53/53
f 44/55/55 57/69/69 56/68/68 43/54/54
f 45/56/56 58/70/70 57/69/69 44/55/55
f 46/57/57 59/71/71 87/72/72 88/58/58
f 47/59/59 60/73/73 59/71/71 46/57/57
f 48/60/60 61/74/74 60/73/73 47/59/59
f 49/61/61 62/75/75 61/74/74 48/60/60
f 50/62/62 63/76/76 62/75/75 49/61/61
f 51/63/63 64/77/77 63/76/76 50/62/62
f 52/64/64 65/78/78 64/77/77 51/63/63
f 53/65/65 66/79/79 65/78/78 52/64/64
f 54/66/66 67/80/80 66/79/79 53/65/65
f 55/67/67 68/81/81 67/80/80 54/66/66
f 56/68/68 69/82/82 68/81/81 55/67/67
f 57/69/69 70/83/83 69/82/82 56/68/68
f 58/70/70 71/84/84 70/83/83 57/69/69
f 59/71/71 72/85/1 86/86/4 87/72/72
f 60/73/73 73/87/5 72/85/1 59/71/71
f 61/74/74 74/88/7 73/87/5 60/73/73
f 62/75/75 75/89/9 74/88/7 61/74/74
f 63/76/76 76/90/11 75/89/9 62/75/75
f 64/77/77 77/91/13 76/90/11 63/76/76
f 65/78/78 78/92/15 77/91/13 64/77/77
f 66/79/79 79/93/17 78/92/15 65/78/78
f 67/80/80 80/94/19 79/93/17 66/79/79
f 68/81/81 81/95/21 80/94/19 67/80/80
f 69/82/82 82/96/23 81/95/21 68/81/81
f 70/83/83 83/97/25 82/96/23 69/82/82
f 71/84/84 84/98/27 83/97/25 70/83/83
f 85/3/3 1/99/85 6/100/86 86/4/4
f 86/86/4 6/101/86 5/102/87 87/72/72
f 87/72/72 5/102/87 4/103/88 88/58/58
f 88/58/58 4/103/88 3/104/89 89/44/44
f 89/44/44 3/104/89 2/105/90 90/30/30
f 90/30/30 2/105/90 1/99/85 85/3/3
