# This file uses centimeters as units for non-parametric coordinates.

mtllib Famella_03.mtl
g default
v 0.492511 0.040013 0.104412
v 0.492511 0.040013 0.071467
v 0.492511 0.011481 0.054994
v 0.492511 -0.017051 0.071467
v 0.492511 -0.017051 0.104412
v 0.492511 0.011481 0.120885
v 0.493111 0.031913 0.099736
v 0.493111 0.031913 0.076143
v 0.493111 0.011481 0.064346
v 0.493111 -0.008952 0.076143
v 0.493111 -0.008952 0.099736
v 0.493111 0.011481 0.111533
v 0.453863 0.040013 0.104412
v 0.453263 0.031913 0.099736
v 0.453863 0.040013 0.071467
v 0.453263 0.031913 0.076143
v 0.453862 0.011481 0.054994
v 0.453263 0.011481 0.064346
v 0.453862 -0.017051 0.071467
v 0.453263 -0.008952 0.076143
v 0.453862 -0.017051 0.104412
v 0.453263 -0.008952 0.099736
v 0.453862 0.011481 0.120885
v 0.453263 0.011481 0.111533
vt 0.790576 0.570416
vt 0.793927 0.564918
vt 0.804802 0.584772
vt 0.798364 0.584634
vt 0.793091 0.604145
vt 0.789978 0.598508
vt 0.770457 0.603743
vt 0.773769 0.598220
vt 0.759442 0.583966
vt 0.765881 0.584058
vt 0.771015 0.564510
vt 0.774168 0.570125
vt 0.790379 0.570298
vt 0.793651 0.564752
vt 0.815320 0.585347
vt 0.808881 0.585414
vt 0.819972 0.565680
vt 0.823263 0.571215
vt 0.823756 0.599424
vt 0.820660 0.605071
vt 0.808886 0.585736
vt 0.815324 0.585577
vt 0.839963 0.599083
vt 0.843293 0.604595
vt 0.847806 0.584895
vt 0.854244 0.584782
vt 0.839473 0.570989
vt 0.842608 0.565365
vt 0.798786 0.554236
vt 0.771405 0.554231
vt 0.771408 0.538019
vt 0.798789 0.538024
vt 0.818519 0.419158
vt 0.845075 0.419159
vt 0.845074 0.441797
vt 0.818519 0.441796
vt 0.798803 0.456964
vt 0.798800 0.473176
vt 0.771419 0.473171
vt 0.771422 0.456960
vt 0.845074 0.464434
vt 0.818518 0.464433
vt 0.798798 0.489388
vt 0.771417 0.489383
vt 0.845074 0.487072
vt 0.818518 0.487071
vt 0.798795 0.505600
vt 0.771414 0.505595
vt 0.845073 0.509709
vt 0.818517 0.509708
vt 0.798792 0.521812
vt 0.771411 0.521807
vt 0.845073 0.532346
vt 0.818517 0.532346
vt 0.818516 0.554983
vt 0.845072 0.554984
vn -0.997271 0.073831 0.000000
vn -0.997271 0.073831 0.000000
vn -0.997271 0.073831 0.000000
vn -0.997271 0.073831 0.000000
vn -0.997271 0.036914 -0.063935
vn -0.997271 0.036914 -0.063935
vn -0.997271 0.036914 -0.063935
vn -0.997271 0.036914 -0.063935
vn -0.997271 -0.036912 -0.063934
vn -0.997271 -0.036912 -0.063934
vn -0.997271 -0.036912 -0.063934
vn -0.997271 -0.036912 -0.063934
vn -0.997271 -0.073824 0.000000
vn -0.997271 -0.073824 0.000000
vn -0.997271 -0.073824 0.000000
vn -0.997271 -0.073824 0.000000
vn -0.997271 -0.036912 0.063934
vn -0.997271 -0.036912 0.063934
vn -0.997271 -0.036912 0.063934
vn -0.997271 -0.036912 0.063934
vn -0.997271 0.036915 0.063936
vn -0.997271 0.036915 0.063936
vn -0.997271 0.036915 0.063936
vn -0.997271 0.036915 0.063936
vn 0.997271 0.036912 0.063934
vn 0.997271 0.036912 0.063934
vn 0.997271 0.036912 0.063934
vn 0.997271 0.036912 0.063934
vn 0.997271 0.073824 -0.000000
vn 0.997271 0.073824 -0.000000
vn 0.997271 0.073824 -0.000000
vn 0.997271 0.073824 -0.000000
vn 0.997271 0.036912 -0.063934
vn 0.997271 0.036912 -0.063934
vn 0.997271 0.036912 -0.063934
vn 0.997271 0.036912 -0.063934
vn 0.997271 -0.036912 -0.063934
vn 0.997271 -0.036912 -0.063934
vn 0.997271 -0.036912 -0.063934
vn 0.997271 -0.036912 -0.063934
vn 0.997271 -0.073824 -0.000000
vn 0.997271 -0.073824 -0.000000
vn 0.997271 -0.073824 -0.000000
vn 0.997271 -0.073824 -0.000000
vn 0.997271 -0.036912 0.063934
vn 0.997271 -0.036912 0.063934
vn 0.997271 -0.036912 0.063934
vn 0.997271 -0.036912 0.063934
vn -0.000000 -0.866026 -0.499999
vn -0.000000 -0.866026 -0.499999
vn -0.000000 0.000000 -1.000000
vn -0.000000 0.000000 -1.000000
vn 0.000000 0.866025 0.500000
vn 0.000000 0.866025 0.500000
vn -0.000000 0.866025 -0.500000
vn -0.000000 0.866025 -0.500000
vn -0.000000 -0.866025 0.500000
vn -0.000000 -0.866026 0.500000
vn -0.000000 -0.000000 -1.000000
vn -0.000000 -0.000000 -1.000000
vn -0.000000 0.000001 1.000000
vn -0.000000 0.000001 1.000000
vn -0.000000 -0.866026 -0.500000
vn -0.000000 -0.866026 -0.500000
vn -0.000000 0.866026 0.500000
vn -0.000000 0.866025 0.500000
vn -0.000000 -0.866026 0.500000
vn -0.000000 -0.866026 0.500000
vn -0.000000 0.866026 -0.499999
vn -0.000000 0.866026 -0.500000
vn -0.000000 -0.000001 1.000000
vn -0.000000 -0.000001 1.000000
s off
g polySurface38 pasted__Low_C17 group2
usemtl initialShadingGroup
f 14/1/1 13/2/2 15/3/3 16/4/4
f 16/4/5 15/3/6 17/5/7 18/6/8
f 18/6/9 17/5/10 19/7/11 20/8/12
f 20/8/13 19/7/14 21/9/15 22/10/16
f 22/10/17 21/9/18 23/11/19 24/12/20
f 14/13/21 24/12/22 23/11/23 13/14/24
f 7/15/25 1/16/26 6/17/27 12/18/28
f 8/19/29 2/20/30 1/21/31 7/22/32
f 9/23/33 3/24/34 2/20/35 8/19/36
f 10/25/37 4/26/38 3/24/39 9/23/40
f 11/27/41 5/28/42 4/26/43 10/25/44
f 12/18/45 6/17/46 5/28/47 11/27/48
s 1
f 14/29/49 7/30/50 12/31/51 24/32/52
s 2
f 13/33/53 1/34/54 2/35/55 15/36/56
s 1
f 14/37/49 16/38/57 8/39/58 7/40/50
s 2
f 15/36/56 2/35/55 3/41/59 17/42/60
s 1
f 16/38/57 18/43/61 9/44/62 8/39/58
s 2
f 17/42/60 3/41/59 4/45/63 19/46/64
s 1
f 18/43/61 20/47/65 10/48/66 9/44/62
s 2
f 19/46/64 4/45/63 5/49/67 21/50/68
s 1
f 20/47/65 22/51/69 11/52/70 10/48/66
s 2
f 21/50/68 5/49/67 6/53/71 23/54/72
s 1
f 22/51/69 24/32/52 12/31/51 11/52/70
s 2
f 13/55/53 23/54/72 6/53/71 1/56/54
