# This file uses centimeters as units for non-parametric coordinates.

mtllib Tomb_02.mtl
g default
v 0.721594 -0.001170 0.095110
v 0.764038 -0.001170 0.095110
v 0.742816 0.035587 0.095110
v 0.742816 -0.013422 0.095110
v 0.764038 0.023335 0.095110
v 0.721594 0.023335 0.095110
v 0.722902 0.023335 0.070812
v 0.720269 0.023335 0.036869
v 0.712560 0.023335 0.013268
v 0.701066 0.023335 -0.004006
v 0.685574 0.023335 -0.018984
v 0.666267 0.023335 -0.031050
v 0.641152 0.023335 -0.039208
v 0.606834 0.023335 -0.042525
v 0.577021 0.023335 -0.041808
v 0.722902 -0.001170 0.070812
v 0.720269 -0.001170 0.036869
v 0.712560 -0.001170 0.013268
v 0.701066 -0.001170 -0.004006
v 0.685574 -0.001170 -0.018984
v 0.666267 -0.001170 -0.031050
v 0.641152 -0.001170 -0.039208
v 0.606834 -0.001170 -0.042525
v 0.577021 -0.001170 -0.041808
v 0.744091 -0.013422 0.071980
v 0.741322 -0.013422 0.034202
v 0.732330 -0.013422 0.005552
v 0.718157 -0.013422 -0.016586
v 0.699781 -0.013422 -0.034749
v 0.676671 -0.013422 -0.049547
v 0.646792 -0.013422 -0.059666
v 0.608043 -0.013422 -0.063712
v 0.577021 -0.013422 -0.063021
v 0.765280 -0.001170 0.073147
v 0.762375 -0.001170 0.031535
v 0.752099 -0.001170 -0.002163
v 0.735248 -0.001170 -0.029166
v 0.713987 -0.001170 -0.050514
v 0.687074 -0.001170 -0.068043
v 0.652432 -0.001170 -0.080125
v 0.609252 -0.001170 -0.084899
v 0.577021 -0.001170 -0.084233
v 0.765280 0.023335 0.073147
v 0.762375 0.023335 0.031535
v 0.752099 0.023335 -0.002163
v 0.735248 0.023335 -0.029166
v 0.713987 0.023335 -0.050514
v 0.687074 0.023335 -0.068043
v 0.652432 0.023335 -0.080125
v 0.609252 0.023335 -0.084899
v 0.577021 0.023335 -0.084233
v 0.744091 0.035587 0.071980
v 0.741322 0.035587 0.034202
v 0.732330 0.035587 0.005552
v 0.718157 0.035587 -0.016586
v 0.699781 0.035587 -0.034749
v 0.676671 0.035587 -0.049547
v 0.646792 0.035587 -0.059666
v 0.608043 0.035587 -0.063712
v 0.577021 0.035587 -0.063021
vt 0.942758 0.707571
vt 0.926358 0.707532
vt 0.926506 0.690095
vt 0.941689 0.690330
vt 0.943876 0.732669
vt 0.926286 0.732799
vt 0.944375 0.752039
vt 0.926327 0.752207
vt 0.944459 0.768630
vt 0.926572 0.768771
vt 0.944500 0.785878
vt 0.926805 0.786009
vt 0.944559 0.803962
vt 0.926983 0.804121
vt 0.944393 0.824545
vt 0.927293 0.824696
vt 0.943815 0.850323
vt 0.927734 0.850361
vt 0.942822 0.871686
vt 0.928197 0.871502
vt 0.909772 0.704491
vt 0.910926 0.688714
vt 0.908931 0.730381
vt 0.908674 0.750675
vt 0.908968 0.768357
vt 0.909359 0.785797
vt 0.909703 0.804359
vt 0.910429 0.825704
vt 0.911727 0.852169
vt 0.913423 0.873303
vt 0.893065 0.701334
vt 0.894453 0.686604
vt 0.891859 0.728044
vt 0.891479 0.749417
vt 0.891727 0.768275
vt 0.892178 0.786061
vt 0.892701 0.805119
vt 0.893675 0.827268
vt 0.895478 0.854664
vt 0.897749 0.876052
vt 0.876283 0.699809
vt 0.877572 0.684874
vt 0.874872 0.727110
vt 0.874434 0.749268
vt 0.874652 0.768835
vt 0.875143 0.787112
vt 0.875764 0.806593
vt 0.876829 0.829203
vt 0.878791 0.856949
vt 0.881165 0.878557
vt 0.975856 0.700654
vt 0.959242 0.704337
vt 0.957078 0.688695
vt 0.973340 0.686131
vt 0.978121 0.727607
vt 0.961171 0.730156
vt 0.979014 0.749116
vt 0.961957 0.750439
vt 0.979013 0.768025
vt 0.961959 0.768126
vt 0.978822 0.785785
vt 0.961839 0.785565
vt 0.978687 0.804802
vt 0.961785 0.804104
vt 0.978028 0.826908
vt 0.961267 0.825433
vt 0.976375 0.854320
vt 0.959914 0.851946
vt 0.973798 0.875600
vt 0.957786 0.873126
vn -0.856491 0.515758 0.020421
vn -0.856491 -0.515758 0.020421
vn -0.872644 -0.486078 -0.047126
vn -0.872644 0.486078 -0.047126
vn -0.832815 0.532684 0.150555
vn -0.832815 -0.532684 0.150555
vn -0.759715 0.543731 0.356638
vn -0.759715 -0.543731 0.356638
vn -0.646766 0.539932 0.538672
vn -0.646766 -0.539932 0.538671
vn -0.518119 0.537062 0.665671
vn -0.518119 -0.537062 0.665671
vn -0.349439 0.539485 0.766060
vn -0.349439 -0.539485 0.766060
vn -0.161388 0.533041 0.830555
vn -0.161388 -0.533041 0.830555
vn -0.035638 0.517394 0.855005
vn -0.035638 -0.517394 0.855005
vn 0.020539 0.500945 0.865236
vn 0.020539 -0.500945 0.865236
vn 0.037868 -0.999279 -0.002647
vn -0.032036 -0.999486 -0.001365
vn 0.070973 -0.997377 -0.014213
vn 0.086326 -0.995484 -0.039482
vn 0.070698 -0.996036 -0.053977
vn 0.051471 -0.996633 -0.063820
vn 0.037628 -0.996173 -0.078888
vn 0.016679 -0.997094 -0.074338
vn 0.003736 -0.999074 -0.042854
vn 0.000393 -0.999991 -0.004166
vn 0.875441 -0.482819 -0.022087
vn 0.856520 -0.513854 0.048244
vn 0.869950 -0.469300 -0.151478
vn 0.810675 -0.460130 -0.362059
vn 0.695908 -0.462252 -0.549578
vn 0.555792 -0.465368 -0.688860
vn 0.384218 -0.463010 -0.798748
vn 0.186793 -0.466908 -0.864352
vn 0.046982 -0.480325 -0.875831
vn -0.018157 -0.497400 -0.867331
vn 0.875441 0.482819 -0.022087
vn 0.856520 0.513854 0.048244
vn 0.869950 0.469300 -0.151477
vn 0.810675 0.460130 -0.362059
vn 0.695908 0.462252 -0.549578
vn 0.555792 0.465368 -0.688859
vn 0.384218 0.463010 -0.798748
vn 0.186793 0.466908 -0.864352
vn 0.046982 0.480325 -0.875831
vn -0.018157 0.497400 -0.867331
vn 0.037867 0.999279 -0.002647
vn -0.032036 0.999486 -0.001365
vn 0.070972 0.997377 -0.014213
vn 0.086326 0.995484 -0.039481
vn 0.070697 0.996036 -0.053977
vn 0.051471 0.996633 -0.063820
vn 0.037628 0.996173 -0.078887
vn 0.016679 0.997094 -0.074338
vn 0.003736 0.999074 -0.042853
vn 0.000393 0.999991 -0.004166
s 1
g polySurface34 pasted__Low_C17 group2
usemtl initialShadingGroup
f 7/1/1 16/2/2 1/3/3 6/4/4
f 8/5/5 17/6/6 16/2/2 7/1/1
f 9/7/7 18/8/8 17/6/6 8/5/5
f 10/9/9 19/10/10 18/8/8 9/7/7
f 11/11/11 20/12/12 19/10/10 10/9/9
f 12/13/13 21/14/14 20/12/12 11/11/11
f 13/15/15 22/16/16 21/14/14 12/13/13
f 14/17/17 23/18/18 22/16/16 13/15/15
f 15/19/19 24/20/20 23/18/18 14/17/17
f 16/2/2 25/21/21 4/22/22 1/3/3
f 17/6/6 26/23/23 25/21/21 16/2/2
f 18/8/8 27/24/24 26/23/23 17/6/6
f 19/10/10 28/25/25 27/24/24 18/8/8
f 20/12/12 29/26/26 28/25/25 19/10/10
f 21/14/14 30/27/27 29/26/26 20/12/12
f 22/16/16 31/28/28 30/27/27 21/14/14
f 23/18/18 32/29/29 31/28/28 22/16/16
f 24/20/20 33/30/30 32/29/29 23/18/18
f 25/21/21 34/31/31 2/32/32 4/22/22
f 26/23/23 35/33/33 34/31/31 25/21/21
f 27/24/24 36/34/34 35/33/33 26/23/23
f 28/25/25 37/35/35 36/34/34 27/24/24
f 29/26/26 38/36/36 37/35/35 28/25/25
f 30/27/27 39/37/37 38/36/36 29/26/26
f 31/28/28 40/38/38 39/37/37 30/27/27
f 32/29/29 41/39/39 40/38/38 31/28/28
f 33/30/30 42/40/40 41/39/39 32/29/29
f 34/31/31 43/41/41 5/42/42 2/32/32
f 35/33/33 44/43/43 43/41/41 34/31/31
f 36/34/34 45/44/44 44/43/43 35/33/33
f 37/35/35 46/45/45 45/44/44 36/34/34
f 38/36/36 47/46/46 46/45/45 37/35/35
f 39/37/37 48/47/47 47/46/46 38/36/36
f 40/38/38 49/48/48 48/47/47 39/37/37
f 41/39/39 50/49/49 49/48/48 40/38/38
f 42/40/40 51/50/50 50/49/49 41/39/39
f 43/51/41 52/52/51 3/53/52 5/54/42
f 44/55/43 53/56/53 52/52/51 43/51/41
f 45/57/44 54/58/54 53/56/53 44/55/43
f 46/59/45 55/60/55 54/58/54 45/57/44
f 47/61/46 56/62/56 55/60/55 46/59/45
f 48/63/47 57/64/57 56/62/56 47/61/46
f 49/65/48 58/66/58 57/64/57 48/63/47
f 50/67/49 59/68/59 58/66/58 49/65/48
f 51/69/50 60/70/60 59/68/59 50/67/49
f 52/52/51 7/1/1 6/4/4 3/53/52
f 53/56/53 8/5/5 7/1/1 52/52/51
f 54/58/54 9/7/7 8/5/5 53/56/53
f 55/60/55 10/9/9 9/7/7 54/58/54
f 56/62/56 11/11/11 10/9/9 55/60/55
f 57/64/57 12/13/13 11/11/11 56/62/56
f 58/66/58 13/15/15 12/13/13 57/64/57
f 59/68/59 14/17/17 13/15/15 58/66/58
f 60/70/60 15/19/19 14/17/17 59/68/59
